111
111
111
111
111
111
111
111
111
111
111
111
111
111
111
111
111
111
111
111
111
111
111
111
111
111
111
111
111
111
111
111
111
111
111
111
111
111
111
111
111
111
111
111
111
111
111
111
111
111
111
111
111
111
111
111
111
111
111
111
111
111
111
111
111
111
111
111
111
111
111
111
111
111
111
111
111
111
111
111
111
111
111
111
111
111
111
111
111
111
111
111
111
111
111
111
111
111
111
111
111
111
111
111
111
111
111
111
111
111
111
111
111
111
111
111
111
111
111
111
111
111
111
111
111
111
111
111
111
111
111
111
111
111
100
100
100
100
100
111
111
111
111
111
111
111
111
111
100
100
100
100
100
111
111
111
111
111
111
111
111
111
111
111
111
100
100
100
100
100
100
100
100
111
111
111
111
111
100
100
100
100
100
100
100
100
111
111
111
111
111
111
111
111
111
111
100
100
100
100
100
100
100
100
100
100
111
111
111
100
100
100
100
100
100
100
100
100
100
111
111
111
111
111
111
111
111
111
100
100
100
100
100
100
100
100
100
100
100
111
100
100
100
100
100
100
100
100
100
100
100
111
111
111
111
111
111
111
111
100
100
100
100
100
100
100
100
100
100
100
100
100
100
100
100
100
100
100
100
100
100
100
100
100
111
111
111
111
111
111
111
100
100
100
100
100
100
100
100
100
100
100
100
100
100
100
100
100
100
100
100
100
100
100
100
100
111
111
111
111
111
111
111
100
100
100
100
100
100
100
100
100
100
100
100
100
100
100
100
100
100
100
100
100
100
100
100
100
111
111
111
111
111
111
111
100
100
100
100
100
100
100
100
100
100
100
100
100
100
100
100
100
100
100
100
100
100
100
100
100
111
111
111
111
111
111
111
111
100
100
100
100
100
100
100
100
100
100
100
100
100
100
100
100
100
100
100
100
100
100
100
111
111
111
111
111
111
111
111
111
100
100
100
100
100
100
100
100
100
100
100
100
100
100
100
100
100
100
100
100
100
100
100
111
111
111
111
111
111
111
111
111
111
100
100
100
100
100
100
100
100
100
100
100
100
100
100
100
100
100
100
100
100
100
111
111
111
111
111
111
111
111
111
111
111
111
100
100
100
100
100
100
100
100
100
100
100
100
100
100
100
100
100
100
100
111
111
111
111
111
111
111
111
111
111
111
111
111
111
100
100
100
100
100
100
100
100
100
100
100
100
100
100
100
100
100
111
111
111
111
111
111
111
111
111
111
111
111
111
111
111
111
100
100
100
100
100
100
100
100
100
100
100
100
100
100
100
111
111
111
111
111
111
111
111
111
111
111
111
111
111
111
111
111
111
100
100
100
100
100
100
100
100
100
100
100
100
100
111
111
111
111
111
111
111
111
111
111
111
111
111
111
111
111
111
111
111
111
100
100
100
100
100
100
100
100
100
100
100
111
111
111
111
111
111
111
111
111
111
111
111
111
111
111
111
111
111
111
111
111
111
100
100
100
100
100
100
100
100
100
111
111
111
111
111
111
111
111
111
111
111
111
111
111
111
111
111
111
111
111
111
111
111
111
100
100
100
100
100
100
100
111
111
111
111
111
111
111
111
111
111
111
111
111
111
111
111
111
111
111
111
111
111
111
111
111
111
100
100
100
100
100
111
111
111
111
111
111
111
111
111
111
111
111
111
111
111
111
111
111
111
111
111
111
111
111
111
111
111
111
100
100
100
111
111
111
111
111
111
111
111
111
111
111
111
111
111
111
111
111
111
111
111
111
111
111
111
111
111
111
111
111
111
100
111
111
111
111
111
111
111
111
111
111
111
111
111
111
111
111
111
111
111
111
111
111
111
111
111
111
111
111
111
111
111
111
111
111
111
111
111
111
111
111
111
111
111
111
111
111
111
111
111
111
111
111
111
111
111
111
111
111
111
111
111
111
111
111
111
111
111
111
111
111
111
111
111
111
111
111
111
111
111
111
111
111
111
111
111
111
111
111
111
111
111
111
111
111
111
111
111
111
111
111
111
111
111
111
111
111
111
111
111
111
111
111
111
111
111
111
111
111
111
111
111
111
111
111
111
111
111
111
111
111
111
111
111
111
111
111
111
111
111
111
111
111
111
111
111
111
111
111
111
111
111
111
111
111
111
111
111
111
111
111
111
111
111
111
111
111
111
111
111
111
111
111
111
111
111
111
111
111
111
111
111
111
111
111
111
111
111
111
111
111
111
111
111
111
111
111
111
111
111
111
111
111
111
111
111
111
111
111
111
111
111
111
111
111
111
111
111
111
111
111
111
111
111
111
111
111
111
111
111
111
111
111
111
111
111
111
111
111
111
111
111
111
111
111
111
111
111
111
111
111
111
111
111
111
111
111
111
111
111
111
111
111
111
111
111
111
111
111
111
111
111
111
111
111
111
111
111
111
111
111
111
111
111
111
111
111
111
111
111
111
111
111
111
111
111
111
111
111
111
111
111
111
111
111
111
111
111
111
111
111
111
111
111
111
111
111
111
111
111
100
111
111
111
111
111
111
111
111
111
111
111
111
111
111
111
111
111
111
111
111
111
111
111
111
111
111
111
111
111
111
111
100
111
111
111
111
111
111
111
111
111
111
111
111
111
111
111
111
111
111
111
111
111
111
111
111
111
111
111
111
111
111
100
100
100
111
111
111
111
111
111
111
111
111
111
111
111
111
111
111
111
111
111
111
111
111
111
111
111
111
111
111
111
111
100
100
100
111
111
111
111
111
111
111
111
111
111
111
111
111
111
111
111
111
111
111
111
111
111
111
111
111
111
111
111
100
100
100
100
100
111
111
111
111
111
111
111
111
111
111
111
111
111
111
111
111
111
111
111
111
111
111
111
111
111
111
111
100
100
100
100
100
111
111
111
111
111
111
111
111
111
111
111
111
111
111
111
111
111
111
111
111
111
111
111
111
111
111
100
100
100
100
100
100
100
111
111
111
111
111
111
111
111
111
111
111
111
111
111
111
111
111
111
111
111
111
111
111
111
111
100
100
100
100
100
100
100
111
111
111
111
111
111
111
111
111
111
111
111
111
111
111
111
111
111
111
111
111
111
111
111
100
100
100
100
100
100
100
100
100
111
111
111
111
111
111
111
111
111
111
111
111
111
111
111
111
111
111
111
111
111
111
111
100
100
100
100
100
100
100
100
100
111
111
111
111
111
111
111
111
111
111
111
111
111
111
111
111
111
111
111
111
111
111
100
100
100
100
100
100
100
100
100
100
100
111
111
111
111
111
111
111
111
111
111
111
111
111
111
111
111
111
111
111
111
100
100
100
100
100
100
100
100
100
100
100
100
100
111
111
111
111
111
111
111
111
111
111
111
111
111
111
111
111
111
111
100
100
100
100
100
100
100
100
100
100
100
100
100
100
100
111
111
111
111
111
111
111
111
111
111
111
111
111
111
111
111
100
100
100
100
100
100
100
100
100
100
100
100
100
100
100
100
100
111
111
111
111
111
111
111
111
111
111
111
111
111
111
100
100
100
100
100
100
100
100
100
100
100
100
100
100
100
100
100
100
100
111
111
111
111
111
111
111
111
111
111
111
111
111
111
100
100
100
100
100
100
100
100
100
100
100
100
100
100
100
100
100
111
111
111
111
111
111
111
111
111
111
111
111
111
111
111
111
100
100
100
100
100
100
100
100
100
100
100
100
100
100
100
111
111
111
111
111
111
111
111
111
111
111
111
111
111
111
111
111
111
100
100
100
100
100
100
100
100
100
100
100
100
100
111
111
111
111
111
111
111
111
111
111
111
111
111
111
111
111
111
111
111
111
100
100
100
100
100
100
100
100
100
100
100
111
111
111
111
111
111
111
111
111
111
111
111
111
111
111
111
111
111
111
111
111
111
100
100
100
100
100
100
100
100
100
111
111
111
111
111
111
111
111
111
111
111
111
111
111
111
111
111
111
111
111
111
111
111
100
100
100
100
100
100
100
100
100
111
111
111
111
111
111
111
111
111
111
111
111
111
111
111
111
111
111
111
111
111
111
111
111
100
100
100
100
100
100
100
111
111
111
111
111
111
111
111
111
111
111
111
111
111
111
111
111
111
111
111
111
111
111
111
111
100
100
100
100
100
100
100
111
111
111
111
111
111
111
111
111
111
111
111
111
111
111
111
111
111
111
111
111
111
111
111
111
111
100
100
100
100
100
111
111
111
111
111
111
111
111
111
111
111
111
111
111
111
111
111
111
111
111
111
111
111
111
111
111
111
100
100
100
100
100
111
111
111
111
111
111
111
111
111
111
111
111
111
111
111
111
111
111
111
111
111
111
111
111
111
111
111
111
100
100
100
111
111
111
111
111
111
111
111
111
111
111
111
111
111
111
111
111
111
111
111
111
111
111
111
111
111
111
111
111
100
100
100
111
111
111
111
111
111
111
111
111
111
111
111
111
111
111
111
111
111
111
111
111
111
111
111
111
111
111
111
111
111
100
111
111
111
111
111
111
111
111
111
111
111
111
111
111
111
111
111
111
111
111
111
111
111
111
111
111
111
111
111
111
111
100
111
111
111
111
111
111
111
111
111
111
111
111
111
111
111
111
111
111
111
111
111
111
111
111
111
111
111
111
111
111
111
111
111
111
111
111
111
111
111
111
111
111
111
111
111
111
111
111
111
111
111
111
111
111
111
111
111
111
111
111
111
111
111
111
111
111
111
111
111
111
111
111
111
111
111
111
111
111
111
111
111
111
111
111
111
111
111
111
111
111
111
111
111
111
111
111
111
111
111
111
111
111
111
111
111
111
111
111
111
111
111
111
111
111
111
111
111
111
111
111
111
111
111
111
111
111
111
111
111
111
111
111
111
111
111
111
111
111
111
111
111
111
111
111
111
111
111
111
111
111
111
111
111
111
111
111
111
111
000
000
000
000
111
111
111
111
111
111
111
111
111
111
111
111
111
111
111
111
111
111
111
111
111
111
111
111
111
111
000
000
000
000
000
000
000
000
111
111
111
111
111
111
111
111
111
111
111
111
111
111
111
111
111
111
111
111
111
111
111
000
000
000
000
000
000
000
000
000
000
111
111
111
111
111
111
111
111
111
111
111
111
111
111
111
111
111
111
111
111
111
000
000
000
000
000
000
000
000
000
000
000
000
111
111
111
111
111
111
111
111
111
111
111
111
111
111
111
111
111
111
111
111
000
000
000
000
000
000
000
000
000
000
000
000
111
111
111
111
111
111
111
111
111
111
111
111
111
111
111
111
111
111
111
000
000
000
000
000
000
000
000
000
000
000
000
000
000
111
111
111
111
111
111
111
111
111
111
111
111
111
111
111
111
111
111
000
000
000
000
000
000
000
000
000
000
000
000
000
000
111
111
111
111
111
111
111
111
111
111
111
111
111
111
111
111
111
111
111
000
000
000
000
000
000
000
000
000
000
000
000
111
111
111
111
111
111
111
111
111
111
111
111
111
111
111
111
111
111
111
111
111
000
000
000
000
000
000
000
000
000
000
111
111
111
111
111
111
111
111
111
111
111
111
111
111
111
111
111
000
000
000
000
111
111
000
000
000
000
000
000
000
000
111
111
000
000
000
000
111
111
111
111
111
111
111
111
111
111
111
000
000
000
000
000
000
000
000
000
000
000
000
000
000
000
000
000
000
000
000
000
000
111
111
111
111
111
111
111
111
111
000
000
000
000
000
000
000
000
000
000
000
000
000
000
000
000
000
000
000
000
000
000
000
000
111
111
111
111
111
111
111
111
000
000
000
000
000
000
000
000
000
000
000
000
000
000
000
000
000
000
000
000
000
000
000
000
111
111
111
111
111
111
111
000
000
000
000
000
000
000
000
000
000
000
000
000
000
000
000
000
000
000
000
000
000
000
000
000
000
111
111
111
111
111
111
000
000
000
000
000
000
000
000
000
000
000
000
000
000
000
000
000
000
000
000
000
000
000
000
000
000
111
111
111
111
111
111
000
000
000
000
000
000
000
000
000
000
000
000
000
000
000
000
000
000
000
000
000
000
000
000
000
000
111
111
111
111
111
111
111
000
000
000
000
000
000
000
000
000
000
000
000
000
000
000
000
000
000
000
000
000
000
000
000
111
111
111
111
111
111
111
111
000
000
000
000
000
000
000
000
000
000
000
000
000
000
000
000
000
000
000
000
000
000
000
000
111
111
111
111
111
111
111
111
111
000
000
000
000
000
000
000
000
000
111
000
000
111
000
000
000
000
000
000
000
000
000
111
111
111
111
111
111
111
111
111
111
111
000
000
000
000
000
000
111
111
111
000
000
111
111
111
000
000
000
000
000
000
111
111
111
111
111
111
111
111
111
111
111
111
111
111
000
000
111
111
111
111
111
000
000
111
111
111
111
111
000
000
111
111
111
111
111
111
111
111
111
111
111
111
111
111
111
111
111
111
111
111
111
111
000
000
000
000
111
111
111
111
111
111
111
111
111
111
111
111
111
111
111
111
111
111
111
111
111
111
111
111
111
111
111
111
000
000
000
000
111
111
111
111
111
111
111
111
111
111
111
111
111
111
111
111
111
111
111
111
111
111
111
111
111
111
111
000
000
000
000
000
000
111
111
111
111
111
111
111
111
111
111
111
111
111
111
111
111
111
111
111
111
111
111
111
111
111
000
000
000
000
000
000
000
000
111
111
111
111
111
111
111
111
111
111
111
111
111
111
111
111
111
111
111
111
111
111
111
111
111
111
111
111
111
111
111
111
111
111
111
111
111
111
111
111
111
111
111
111
111
111
111
111
111
111
111
111
111
111
111
111
111
111
111
111
111
111
111
111
111
111
111
111
111
111
111
111
111
111
111
111
111
111
111
111
111
111
111
111
111
111
111
111
111
111
111
111
111
111
111
111
111
111
111
111
111
111
111
111
111
111
111
111
111
111
111
111
111
111
111
111
111
111
111
111
111
111
111
111
111
111
111
111
111
111
111
111
111
111
111
111
111
111
111
111
111
111
111
111
111
111
111
111
111
111
111
111
111
111
111
111
111
111
111
111
111
111
111
111
111
111
111
111
111
111
111
111
111
111
111
111
111
111
111
111
111
111
111
111
111
111
111
111
111
111
111
111
111
111
111
111
111
111
111
111
111
111
111
111
111
111
111
111
111
111
111
111
111
111
111
111
111
111
111
111
111
111
111
111
111
111
111
111
111
111
111
111
111
111
111
111
111
111
111
111
111
111
111
111
111
111
111
111
111
111
111
000
111
111
111
111
111
111
111
111
111
111
111
111
111
111
111
111
111
111
111
111
111
111
111
111
111
111
111
111
111
111
000
000
000
111
111
111
111
111
111
111
111
111
111
111
111
111
111
111
111
111
111
111
111
111
111
111
111
111
111
111
111
000
000
000
000
000
111
111
111
111
111
111
111
111
111
111
111
111
111
111
111
111
111
111
111
111
111
111
111
111
111
111
000
000
000
000
000
000
000
111
111
111
111
111
111
111
111
111
111
111
111
111
111
111
111
111
111
111
111
111
111
111
111
000
000
000
000
000
000
000
000
000
111
111
111
111
111
111
111
111
111
111
111
111
111
111
111
111
111
111
111
111
111
111
000
000
000
000
000
000
000
000
000
000
000
111
111
111
111
111
111
111
111
111
111
111
111
111
111
111
111
111
111
111
111
000
000
000
000
000
000
000
000
000
000
000
000
000
111
111
111
111
111
111
111
111
111
111
111
111
111
111
111
111
111
111
000
000
000
000
000
000
000
000
000
000
000
000
000
000
000
111
111
111
111
111
111
111
111
111
111
111
111
111
111
111
111
000
000
000
000
000
000
000
000
000
000
000
000
000
000
000
000
000
111
111
111
111
111
111
111
111
111
111
111
111
111
111
000
000
000
000
000
000
000
000
000
000
000
000
000
000
000
000
000
000
000
111
111
111
111
111
111
111
111
111
111
111
111
000
000
000
000
000
000
000
000
000
000
000
000
000
000
000
000
000
000
000
000
000
111
111
111
111
111
111
111
111
111
111
000
000
000
000
000
000
000
000
000
000
000
000
000
000
000
000
000
000
000
000
000
000
000
111
111
111
111
111
111
111
111
111
000
000
000
000
000
000
000
000
000
000
000
000
000
000
000
000
000
000
000
000
000
000
000
111
111
111
111
111
111
111
111
000
000
000
000
000
000
000
000
000
000
000
000
000
000
000
000
000
000
000
000
000
000
000
000
000
111
111
111
111
111
111
111
000
000
000
000
000
000
000
000
000
000
000
000
000
000
000
000
000
000
000
000
000
000
000
000
000
111
111
111
111
111
111
111
000
000
000
000
000
000
000
000
000
000
000
000
000
000
000
000
000
000
000
000
000
000
000
000
000
111
111
111
111
111
111
111
000
000
000
000
000
000
000
000
000
000
000
000
000
000
000
000
000
000
000
000
000
000
000
000
000
111
111
111
111
111
111
111
111
000
000
000
000
000
000
000
000
000
000
000
000
000
000
000
000
000
000
000
000
000
000
000
111
111
111
111
111
111
111
111
111
000
000
000
000
000
000
000
000
000
000
111
000
111
000
000
000
000
000
000
000
000
000
000
111
111
111
111
111
111
111
111
111
111
000
000
000
000
000
000
000
000
111
111
000
111
111
000
000
000
000
000
000
000
000
111
111
111
111
111
111
111
111
111
111
111
111
000
000
000
000
000
111
111
111
000
000
000
111
111
111
000
000
000
000
000
111
111
111
111
111
111
111
111
111
111
111
111
111
111
111
111
111
111
111
111
111
000
000
000
111
111
111
111
111
111
111
111
111
111
111
111
111
111
111
111
111
111
111
111
111
111
111
111
111
111
111
111
111
000
000
000
111
111
111
111
111
111
111
111
111
111
111
111
111
111
111
111
111
111
111
111
111
111
111
111
111
111
111
111
000
000
000
000
000
111
111
111
111
111
111
111
111
111
111
111
111
111
111
111
111
111
111
111
111
111
111
111
111
111
111
111
000
000
000
000
000
111
111
111
111
111
111
111
111
111
111
111
111
111
111
111
111
111
111
111
111
111
111
111
111
111
111
000
000
000
000
000
000
000
111
111
111
111
111
111
111
111
111
111
111
111
111
111
111
111
111
111
111
111
111
111
111
111
111
111
111
111
111
111
111
111
111
111
111
111
111
111
111
111
111
111
111
111
111
111
111
111
111
111
111
111
111
111
111
111
111
111
111
111
111
111
111
111
111
111
111
111
111
111
111
111
111
111
111
111
111
111
111
111
111
111
111
111
111
111
111
111
111
111
111
111
111
111
111
111
111
111
111
111
111
111
111
111
111
111
111
111
111
